…
```r
by_cyl <- no_zero1 %>% group_by(gname)
by_cyl
```

```
## # A tibble: 47,178 × 2
## # Groups:   gname [1,759]
##    nkill gname                                                
##    <dbl> <chr>                                                
##  1     1 1 May                                                
##  2     1 1 May                                                
##  3     5 14 March Coalition                                   
##  4     1 16 January Organization for the Liberation of Tripoli
##  5     8 1920 Revolution Brigades                             
##  6     7 1920 Revolution Brigades                             
##  7     1 19th of July Christian Resistance Brigade            
##  8     1 20 December Movement (M-20)                          
##  9     1 23 May Democratic Alliance (Algeria)                 
## 10     1 23rd of September Communist League                   
## # … with 47,168 more rows
```
…
```r
na.omit(no_zero)
```

```
## # A tibble: 83,229 × 3
##    date                nkill country_txt       
##    <dttm>              <dbl> <chr>             
##  1 1969-12-31 00:00:00     1 Philippines       
##  2 1970-01-11 00:00:00     1 Ethiopia          
##  3 1970-01-20 00:00:00     1 Guatemala         
##  4 1970-02-10 00:00:00     1 West Germany (FRG)
##  5 1970-02-13 00:00:00     7 West Germany (FRG)
##  6 1970-02-16 00:00:00     1 United States     
##  7 1970-02-21 00:00:00    47 Switzerland       
##  8 1970-03-05 00:00:00     2 United States     
##  9 1970-03-09 00:00:00     2 United States     
## 10 1970-03-20 00:00:00     1 United States     
## # … with 83,219 more rows
```
…
```r
#Cinema Rex fire Iraq 1978
#Rewanda genocide 1994
#9/11/2000
#Iraq war many diffrent things



Top_5 <- no_zero %>%
  filter(country_txt %in%  c("Afghanistan", "Iraq", "Somalia", "United States", "Syria", "Rwanda"))
Top_5
```

```
## # A tibble: 28,828 × 3
##    date                nkill country_txt  
##    <dttm>              <dbl> <chr>        
##  1 1970-02-16 00:00:00     1 United States
##  2 1970-03-05 00:00:00     2 United States
##  3 1970-03-09 00:00:00     2 United States
##  4 1970-03-20 00:00:00     1 United States
##  5 1970-04-24 00:00:00     1 United States
##  6 1970-05-09 00:00:00     1 United States
##  7 1970-05-15 00:00:00     1 United States
##  8 1970-05-22 00:00:00     1 United States
##  9 1970-05-28 00:00:00     1 United States
## 10 1970-06-19 00:00:00     1 United States
## # … with 28,818 more rows
```
…
```r
#us
US_only <- no_zero %>%
  filter(country_txt == "United States")
US_only
```

```
## # A tibble: 283 × 3
##    date                nkill country_txt  
##    <dttm>              <dbl> <chr>        
##  1 1970-02-16 00:00:00     1 United States
##  2 1970-03-05 00:00:00     2 United States
##  3 1970-03-09 00:00:00     2 United States
##  4 1970-03-20 00:00:00     1 United States
##  5 1970-04-24 00:00:00     1 United States
##  6 1970-05-09 00:00:00     1 United States
##  7 1970-05-15 00:00:00     1 United States
##  8 1970-05-22 00:00:00     1 United States
##  9 1970-05-28 00:00:00     1 United States
## 10 1970-06-19 00:00:00     1 United States
## # … with 273 more rows
```
…
```r
citys <- dat2 %>%
  select(country_txt,city, nkill, date, longitude, latitude, provstate, region_txt)
citys
```

```
## # A tibble: 181,691 × 8
##    country_txt   city  nkill date                longi…¹ latit…² provs…³ regio…⁴
##    <chr>         <chr> <dbl> <dttm>                <dbl>   <dbl> <chr>   <chr>  
##  1 Dominican Re… Sant…     1 1970-07-02 00:00:00   -70.0    18.5 <NA>    Centra…
##  2 Mexico        Mexi…     0 1969-11-30 00:00:00   -99.1    19.4 Federal North …
##  3 Philippines   Unkn…     1 1969-12-31 00:00:00   121.     15.5 Tarlac  Southe…
##  4 Greece        Athe…    NA 1969-12-31 00:00:00    23.8    38.0 Attica  Wester…
##  5 Japan         Fuko…    NA 1969-12-31 00:00:00   130.     33.6 Fukouka East A…
##  6 United States Cairo     0 1970-01-01 00:00:00   -89.2    37.0 Illino… North …
##  7 Uruguay       Mont…     0 1970-01-02 00:00:00   -56.2   -34.9 Montev… South …
##  8 United States Oakl…     0 1970-01-02 00:00:00  -122.     37.8 Califo… North …
##  9 United States Madi…     0 1970-01-02 00:00:00   -89.4    43.1 Wiscon… North …
## 10 United States Madi…     0 1970-01-03 00:00:00   -89.4    43.1 Wiscon… North …
## # … with 181,681 more rows, and abbreviated variable names ¹​longitude,
## #   ²​latitude, ³​provstate, ⁴​region_txt
```

```r
united <- citys %>%
  filter(country_txt == "United States")
united
```

```
## # A tibble: 2,836 × 8
##    country_txt   city  nkill date                longi…¹ latit…² provs…³ regio…⁴
##    <chr>         <chr> <dbl> <dttm>                <dbl>   <dbl> <chr>   <chr>  
##  1 United States Cairo     0 1970-01-01 00:00:00   -89.2    37.0 Illino… North …
##  2 United States Oakl…     0 1970-01-02 00:00:00  -122.     37.8 Califo… North …
##  3 United States Madi…     0 1970-01-02 00:00:00   -89.4    43.1 Wiscon… North …
##  4 United States Madi…     0 1970-01-03 00:00:00   -89.4    43.1 Wiscon… North …
##  5 United States Bara…     0 1970-01-01 00:00:00   -89.7    43.5 Wiscon… North …
##  6 United States Denv…     0 1970-01-06 00:00:00  -105.     39.8 Colora… North …
##  7 United States Detr…     0 1970-01-09 00:00:00   -83.0    42.3 Michig… North …
##  8 United States Rio …     0 1970-01-09 00:00:00   -66.1    18.4 Puerto… North …
##  9 United States New …     0 1970-01-12 00:00:00   -73.9    40.7 New Yo… North …
## 10 United States Rio …     0 1970-01-12 00:00:00   -65.8    18.4 Puerto… North …
## # … with 2,826 more rows, and abbreviated variable names ¹​longitude, ²​latitude,
## #   ³​provstate, ⁴​region_txt
```
…
```r
united1 <- united %>%
  filter(city != "Unknown")
united2 <- united1 %>%
  filter(provstate != "Alaska")
united2
```

```
## # A tibble: 2,816 × 8
##    country_txt   city  nkill date                longi…¹ latit…² provs…³ regio…⁴
##    <chr>         <chr> <dbl> <dttm>                <dbl>   <dbl> <chr>   <chr>  
##  1 United States Cairo     0 1970-01-01 00:00:00   -89.2    37.0 Illino… North …
##  2 United States Oakl…     0 1970-01-02 00:00:00  -122.     37.8 Califo… North …
##  3 United States Madi…     0 1970-01-02 00:00:00   -89.4    43.1 Wiscon… North …
##  4 United States Madi…     0 1970-01-03 00:00:00   -89.4    43.1 Wiscon… North …
##  5 United States Bara…     0 1970-01-01 00:00:00   -89.7    43.5 Wiscon… North …
##  6 United States Denv…     0 1970-01-06 00:00:00  -105.     39.8 Colora… North …
##  7 United States Detr…     0 1970-01-09 00:00:00   -83.0    42.3 Michig… North …
##  8 United States Rio …     0 1970-01-09 00:00:00   -66.1    18.4 Puerto… North …
##  9 United States New …     0 1970-01-12 00:00:00   -73.9    40.7 New Yo… North …
## 10 United States Rio …     0 1970-01-12 00:00:00   -65.8    18.4 Puerto… North …
## # … with 2,806 more rows, and abbreviated variable names ¹​longitude, ²​latitude,
## #   ³​provstate, ⁴​region_txt
```

```r
united3 <- united2 %>%
  filter(provstate != "Hawaii")
united3
```

```
## # A tibble: 2,812 × 8
##    country_txt   city  nkill date                longi…¹ latit…² provs…³ regio…⁴
##    <chr>         <chr> <dbl> <dttm>                <dbl>   <dbl> <chr>   <chr>  
##  1 United States Cairo     0 1970-01-01 00:00:00   -89.2    37.0 Illino… North …
##  2 United States Oakl…     0 1970-01-02 00:00:00  -122.     37.8 Califo… North …
##  3 United States Madi…     0 1970-01-02 00:00:00   -89.4    43.1 Wiscon… North …
##  4 United States Madi…     0 1970-01-03 00:00:00   -89.4    43.1 Wiscon… North …
##  5 United States Bara…     0 1970-01-01 00:00:00   -89.7    43.5 Wiscon… North …
##  6 United States Denv…     0 1970-01-06 00:00:00  -105.     39.8 Colora… North …
##  7 United States Detr…     0 1970-01-09 00:00:00   -83.0    42.3 Michig… North …
##  8 United States Rio …     0 1970-01-09 00:00:00   -66.1    18.4 Puerto… North …
##  9 United States New …     0 1970-01-12 00:00:00   -73.9    40.7 New Yo… North …
## 10 United States Rio …     0 1970-01-12 00:00:00   -65.8    18.4 Puerto… North …
## # … with 2,802 more rows, and abbreviated variable names ¹​longitude, ²​latitude,
## #   ³​provstate, ⁴​region_txt
```

```r
united4 <- united3 %>%
  filter(provstate != "Puerto Rico")
united4
```

```
## # A tibble: 2,574 × 8
##    country_txt   city  nkill date                longi…¹ latit…² provs…³ regio…⁴
##    <chr>         <chr> <dbl> <dttm>                <dbl>   <dbl> <chr>   <chr>  
##  1 United States Cairo     0 1970-01-01 00:00:00   -89.2    37.0 Illino… North …
##  2 United States Oakl…     0 1970-01-02 00:00:00  -122.     37.8 Califo… North …
##  3 United States Madi…     0 1970-01-02 00:00:00   -89.4    43.1 Wiscon… North …
##  4 United States Madi…     0 1970-01-03 00:00:00   -89.4    43.1 Wiscon… North …
##  5 United States Bara…     0 1970-01-01 00:00:00   -89.7    43.5 Wiscon… North …
##  6 United States Denv…     0 1970-01-06 00:00:00  -105.     39.8 Colora… North …
##  7 United States Detr…     0 1970-01-09 00:00:00   -83.0    42.3 Michig… North …
##  8 United States New …     0 1970-01-12 00:00:00   -73.9    40.7 New Yo… North …
##  9 United States Seat…     0 1970-01-13 00:00:00  -122.     47.6 Washin… North …
## 10 United States Cham…     0 1970-01-14 00:00:00   -88.2    40.1 Illino… North …
## # … with 2,564 more rows, and abbreviated variable names ¹​longitude, ²​latitude,
## #   ³​provstate, ⁴​region_txt
```

```r
fixed <- united4 %>%
  filter(nkill != 0)
fixed
```

```
## # A tibble: 263 × 8
##    country_txt   city  nkill date                longi…¹ latit…² provs…³ regio…⁴
##    <chr>         <chr> <dbl> <dttm>                <dbl>   <dbl> <chr>   <chr>  
##  1 United States San …     1 1970-02-16 00:00:00  -122.     37.8 Califo… North …
##  2 United States Bel …     2 1970-03-09 00:00:00   -76.3    39.5 Maryla… North …
##  3 United States Detr…     1 1970-03-20 00:00:00   -83.0    42.3 Michig… North …
##  4 United States Balt…     1 1970-04-24 00:00:00   -76.6    39.3 Maryla… North …
##  5 United States Sacr…     1 1970-05-09 00:00:00  -121.     38.6 Califo… North …
##  6 United States Seat…     1 1970-05-15 00:00:00  -122.     47.6 Washin… North …
##  7 United States St. …     1 1970-05-22 00:00:00   -93.1    44.9 Minnes… North …
##  8 United States Sacr…     1 1970-05-28 00:00:00  -121.     38.6 Califo… North …
##  9 United States Chic…     1 1970-06-19 00:00:00   -87.7    41.8 Illino… North …
## 10 United States San …     1 1970-06-19 00:00:00  -122.     37.8 Califo… North …
## # … with 253 more rows, and abbreviated variable names ¹​longitude, ²​latitude,
## #   ³​provstate, ⁴​region_txt
```

```r
ordered <- fixed %>%
  arrange(desc(nkill))
ordered
```

```
## # A tibble: 263 × 8
##    country_txt   city  nkill date                longi…¹ latit…² provs…³ regio…⁴
##    <chr>         <chr> <dbl> <dttm>                <dbl>   <dbl> <chr>   <chr>  
##  1 United States New …  1384 2001-09-11 00:00:00   -73.9    40.7 New Yo… North …
##  2 United States New …  1383 2001-09-11 00:00:00   -73.9    40.7 New Yo… North …
##  3 United States Arli…   190 2001-09-11 00:00:00   -77.1    38.9 Virgin… North …
##  4 United States Okla…   168 1995-04-19 00:00:00   -97.5    35.5 Oklaho… North …
##  5 United States Las …    59 2017-10-01 00:00:00  -115.     36.1 Nevada  North …
##  6 United States Orla…    50 2016-06-12 00:00:00   -81.4    28.5 Florida North …
##  7 United States Shan…    44 2001-09-11 00:00:00   -78.9    40.0 Pennsy… North …
##  8 United States San …    16 2015-12-02 00:00:00  -117.     34.1 Califo… North …
##  9 United States Litt…    15 1999-04-20 00:00:00  -105.     39.6 Colora… North …
## 10 United States West     15 2013-04-17 00:00:00   -97.1    31.8 Texas   North …
## # … with 253 more rows, and abbreviated variable names ¹​longitude, ²​latitude,
## #   ³​provstate, ⁴​region_txt
```
…
```r
weapondata <- dat %>%
  select(weaptype1, weaptype1_txt,gname, nkill )
weapondata
```

```
## # A tibble: 181,691 × 4
##    weaptype1 weaptype1_txt gname                              nkill
##        <dbl> <chr>         <chr>                              <dbl>
##  1        13 Unknown       MANO-D                                 1
##  2        13 Unknown       23rd of September Communist League     0
##  3        13 Unknown       Unknown                                1
##  4         6 Explosives    Unknown                               NA
##  5         8 Incendiary    Unknown                               NA
##  6         5 Firearms      Black Nationalists                     0
##  7         5 Firearms      Tupamaros (Uruguay)                    0
##  8         6 Explosives    Unknown                                0
##  9         8 Incendiary    New Year's Gang                        0
## 10         8 Incendiary    New Year's Gang                        0
## # … with 181,681 more rows
```

```r
weaopon <- weapondata %>%
  arrange(weaptype1)
weaopon
```

```
## # A tibble: 181,691 × 4
##    weaptype1 weaptype1_txt gname          nkill
##        <dbl> <chr>         <chr>          <dbl>
##  1         1 Biological    Dark Harvest       0
##  2         1 Biological    Dark Harvest       0
##  3         1 Biological    Rajneeshees        0
##  4         1 Biological    Rajneeshees        0
##  5         1 Biological    Rajneeshees        0
##  6         1 Biological    Rajneeshees        0
##  7         1 Biological    Aum Shinri Kyo     0
##  8         1 Biological    Aum Shinri Kyo     0
##  9         1 Biological    Unknown            2
## 10         1 Biological    Unknown            1
## # … with 181,681 more rows
```

```r
no_unknown <- weaopon %>%
  filter(weaptype1_txt != "Unknown")
no_unknown
```

```
## # A tibble: 166,534 × 4
##    weaptype1 weaptype1_txt gname          nkill
##        <dbl> <chr>         <chr>          <dbl>
##  1         1 Biological    Dark Harvest       0
##  2         1 Biological    Dark Harvest       0
##  3         1 Biological    Rajneeshees        0
##  4         1 Biological    Rajneeshees        0
##  5         1 Biological    Rajneeshees        0
##  6         1 Biological    Rajneeshees        0
##  7         1 Biological    Aum Shinri Kyo     0
##  8         1 Biological    Aum Shinri Kyo     0
##  9         1 Biological    Unknown            2
## 10         1 Biological    Unknown            1
## # … with 166,524 more rows
```

```r
yes <- no_unknown %>%
  filter(nkill != "0")
yes
```

```
## # A tibble: 76,432 × 4
##    weaptype1 weaptype1_txt gname                        nkill
##        <dbl> <chr>         <chr>                        <dbl>
##  1         1 Biological    Unknown                          2
##  2         1 Biological    Unknown                          1
##  3         1 Biological    Unknown                          2
##  4         1 Biological    Unknown                          2
##  5         1 Biological    Unknown                          1
##  6         1 Biological    Unknown                          1
##  7         2 Chemical      Ulster Volunteer Force (UVF)     1
##  8         2 Chemical      Unknown                          1
##  9         2 Chemical      Unknown                          1
## 10         2 Chemical      Unknown                          1
## # … with 76,422 more rows
```
…
